%YAML 1.1
%TAG !u! tag:unity3d.com,2011:
--- !u!114 &11400000
MonoBehaviour:
  m_ObjectHideFlags: 0
  m_CorrespondingSourceObject: {fileID: 0}
  m_PrefabInstance: {fileID: 0}
  m_PrefabAsset: {fileID: 0}
  m_GameObject: {fileID: 0}
  m_Enabled: 1
  m_EditorHideFlags: 0
  m_Script: {fileID: 11500000, guid: 95e66c6366d904e98bc83428217d4fd7, type: 3}
  m_Name: TankPlayeController
  m_EditorClassIdentifier: 
  _data:
    _json: '{"graph":{"variables":{"Kind":"Flow","collection":{"$content":[],"$version":"A"},"$version":"A"},"controlInputDefinitions":[],"controlOutputDefinitions":[],"valueInputDefinitions":[],"valueOutputDefinitions":[],"title":null,"summary":null,"pan":{"x":0.0,"y":218.7609},"zoom":1.0,"elements":[{"coroutine":false,"defaultValues":{},"position":{"x":-458.0,"y":-205.0},"guid":"4145c10b-ab52-4049-915a-bf8753f69f8b","$version":"A","$type":"Unity.VisualScripting.Update","$id":"9"},{"member":{"name":"deltaTime","parameterTypes":null,"targetType":"UnityEngine.Time","targetTypeName":"UnityEngine.Time","$version":"A"},"defaultValues":{},"position":{"x":-311.0,"y":669.0},"guid":"243c1b98-4a9a-4d16-b5b1-9630c5518a65","$version":"A","$type":"Unity.VisualScripting.GetMember","$id":"11"},{"specifyFallback":false,"kind":"Object","defaultValues":{"name":{"$content":"move
      speed","$type":"System.String"},"object":null},"position":{"x":-293.0,"y":466.0},"guid":"94c28f26-8291-4e47-988a-74312ed589e4","$version":"A","$type":"Unity.VisualScripting.GetVariable","$id":"14"},{"chainable":false,"parameterNames":["eulers"],"member":{"name":"Rotate","parameterTypes":["UnityEngine.Vector3"],"targetType":"UnityEngine.Transform","targetTypeName":"UnityEngine.Transform","$version":"A"},"defaultValues":{"target":null,"%eulers":{"x":0.0,"y":0.0,"z":0.0,"$type":"UnityEngine.Vector3"}},"position":{"x":313.0,"y":295.0},"guid":"8538279d-e6bb-449c-b8bf-695d494f8392","$version":"A","$type":"Unity.VisualScripting.InvokeMember","$id":"16"},{"chainable":false,"parameterNames":["vector","maxLength"],"member":{"name":"ClampMagnitude","parameterTypes":["UnityEngine.Vector3","System.Single"],"targetType":"UnityEngine.Vector3","targetTypeName":"UnityEngine.Vector3","$version":"A"},"defaultValues":{"%vector":{"x":0.0,"y":0.0,"z":0.0,"$type":"UnityEngine.Vector3"},"%maxLength":{"$content":1.0,"$type":"System.Single"}},"position":{"x":-186.0,"y":281.0},"guid":"5995a8fe-15d3-4e7a-ae21-2f12078f4fa1","$version":"A","$type":"Unity.VisualScripting.InvokeMember","$id":"20"},{"coroutine":false,"defaultValues":{},"position":{"x":-410.0,"y":287.0},"guid":"4dc0ec9d-9f5e-45c1-a37f-162bf98ba47a","$version":"A","$type":"Unity.VisualScripting.Update","$id":"24"},{"member":{"name":"deltaTime","parameterTypes":null,"targetType":"UnityEngine.Time","targetTypeName":"UnityEngine.Time","$version":"A"},"defaultValues":{},"position":{"x":-267.0,"y":167.0},"guid":"f8650719-7340-4ab1-b273-8f4015175e88","$version":"A","$type":"Unity.VisualScripting.GetMember","$id":"26"},{"specifyFallback":false,"kind":"Object","defaultValues":{"name":{"$content":"move
      axis","$type":"System.String"},"object":null},"position":{"x":-461.0,"y":451.0},"guid":"9eb8d6bf-9f1f-4f09-99d4-2f348cd2d930","$version":"A","$type":"Unity.VisualScripting.GetVariable","$id":"29"},{"specifyFallback":false,"kind":"Object","defaultValues":{"name":{"$content":"rotation
      axis","$type":"System.String"},"object":null},"position":{"x":-428.0,"y":-7.0},"guid":"3cd7bdc4-2e88-47d4-9eb3-0d907f0c0c36","$version":"A","$type":"Unity.VisualScripting.GetVariable","$id":"31"},{"defaultValues":{},"position":{"x":108.0,"y":388.0},"guid":"01b428cc-0aac-4cc3-af9b-4c26a8382e82","$version":"A","$type":"Unity.VisualScripting.GenericMultiply","$id":"33"},{"defaultValues":{},"position":{"x":-69.0,"y":472.0},"guid":"46ff7809-841f-4b1d-a5c8-7f9b6397a52c","$version":"A","$type":"Unity.VisualScripting.GenericMultiply","$id":"35"},{"defaultValues":{},"position":{"x":132.0,"y":52.0},"guid":"2db6834c-694d-4118-90bd-37151512d371","$version":"A","$type":"Unity.VisualScripting.GenericMultiply","$id":"37"},{"defaultValues":{},"position":{"x":-19.0,"y":65.0},"guid":"44b02519-9cb2-4e0e-b51d-6531a6399b85","$version":"A","$type":"Unity.VisualScripting.GenericMultiply","$id":"39"},{"chainable":false,"parameterNames":["eulers"],"member":{"name":"Rotate","parameterTypes":["UnityEngine.Vector3"],"targetType":"UnityEngine.Transform","targetTypeName":"UnityEngine.Transform","$version":"A"},"defaultValues":{"target":null,"%eulers":{"x":0.0,"y":0.0,"z":0.0,"$type":"UnityEngine.Vector3"}},"position":{"x":260.0,"y":-189.0},"guid":"39385a92-455c-4db3-910d-e11fb827159c","$version":"A","$type":"Unity.VisualScripting.InvokeMember","$id":"41"},{"chainable":false,"parameterNames":["vector","maxLength"],"member":{"name":"ClampMagnitude","parameterTypes":["UnityEngine.Vector3","System.Single"],"targetType":"UnityEngine.Vector3","targetTypeName":"UnityEngine.Vector3","$version":"A"},"defaultValues":{"%vector":{"x":0.0,"y":0.0,"z":0.0,"$type":"UnityEngine.Vector3"},"%maxLength":{"$content":0.0,"$type":"System.Single"}},"position":{"x":-137.0,"y":-193.0},"guid":"c3f28302-bc22-4fae-b13d-e059c928bb33","$version":"A","$type":"Unity.VisualScripting.InvokeMember","$id":"45"},{"specifyFallback":false,"kind":"Object","defaultValues":{"name":{"$content":"rotation
      speed","$type":"System.String"},"object":null},"position":{"x":-242.0,"y":32.0},"guid":"4aee4109-a220-4826-970a-7cc6f221eb73","$version":"A","$type":"Unity.VisualScripting.GetVariable","$id":"49"},{"sourceUnit":{"$ref":"24"},"sourceKey":"trigger","destinationUnit":{"$ref":"20"},"destinationKey":"enter","guid":"a4ff203a-01d3-41e2-83b2-f1d0f0470c44","$type":"Unity.VisualScripting.ControlConnection"},{"sourceUnit":{"$ref":"20"},"sourceKey":"exit","destinationUnit":{"$ref":"16"},"destinationKey":"enter","guid":"762f5f03-4ecd-44d1-95c6-11e9aa1b123e","$type":"Unity.VisualScripting.ControlConnection"},{"sourceUnit":{"$ref":"45"},"sourceKey":"exit","destinationUnit":{"$ref":"41"},"destinationKey":"enter","guid":"a5829aa0-31e8-4b05-8ac5-d4932607795c","$type":"Unity.VisualScripting.ControlConnection"},{"sourceUnit":{"$ref":"9"},"sourceKey":"trigger","destinationUnit":{"$ref":"45"},"destinationKey":"enter","guid":"31d4aa3e-a8e0-44ef-9b22-0d65d374aaff","$type":"Unity.VisualScripting.ControlConnection"},{"sourceUnit":{"$ref":"45"},"sourceKey":"result","destinationUnit":{"$ref":"37"},"destinationKey":"a","guid":"cca1165e-2e3d-4b02-b939-89623bbc99e1","$type":"Unity.VisualScripting.ValueConnection"},{"sourceUnit":{"$ref":"11"},"sourceKey":"value","destinationUnit":{"$ref":"35"},"destinationKey":"b","guid":"bd4d9f56-2eb2-4fd8-9aee-9c27b941795f","$type":"Unity.VisualScripting.ValueConnection"},{"sourceUnit":{"$ref":"39"},"sourceKey":"product","destinationUnit":{"$ref":"37"},"destinationKey":"b","guid":"a2ebc43a-8e36-487a-9073-a4c8ded8cd78","$type":"Unity.VisualScripting.ValueConnection"},{"sourceUnit":{"$ref":"20"},"sourceKey":"result","destinationUnit":{"$ref":"33"},"destinationKey":"a","guid":"1b9e0f6f-12cf-4767-9af6-7e037086fe6e","$type":"Unity.VisualScripting.ValueConnection"},{"sourceUnit":{"$ref":"31"},"sourceKey":"value","destinationUnit":{"$ref":"45"},"destinationKey":"%vector","guid":"74b51178-40fc-41ca-be47-955f08854f21","$type":"Unity.VisualScripting.ValueConnection"},{"sourceUnit":{"$ref":"26"},"sourceKey":"value","destinationUnit":{"$ref":"39"},"destinationKey":"b","guid":"10b6e655-7c22-4e8a-a7ae-086b991fceee","$type":"Unity.VisualScripting.ValueConnection"},{"sourceUnit":{"$ref":"49"},"sourceKey":"value","destinationUnit":{"$ref":"39"},"destinationKey":"a","guid":"216466a8-d8ca-428b-ab90-d5eba691cf93","$type":"Unity.VisualScripting.ValueConnection"},{"sourceUnit":{"$ref":"33"},"sourceKey":"product","destinationUnit":{"$ref":"16"},"destinationKey":"%eulers","guid":"93e1cd6c-7e29-4b31-994f-de3c59af6217","$type":"Unity.VisualScripting.ValueConnection"},{"sourceUnit":{"$ref":"37"},"sourceKey":"product","destinationUnit":{"$ref":"41"},"destinationKey":"%eulers","guid":"0098b191-33eb-4175-8397-0918713ad730","$type":"Unity.VisualScripting.ValueConnection"},{"sourceUnit":{"$ref":"14"},"sourceKey":"value","destinationUnit":{"$ref":"35"},"destinationKey":"a","guid":"d0858756-d91b-4a57-ac0e-38e58395c0ff","$type":"Unity.VisualScripting.ValueConnection"},{"sourceUnit":{"$ref":"35"},"sourceKey":"product","destinationUnit":{"$ref":"33"},"destinationKey":"b","guid":"28ebe114-b2cf-4c48-a8f4-454c6a8cc83c","$type":"Unity.VisualScripting.ValueConnection"},{"sourceUnit":{"$ref":"29"},"sourceKey":"value","destinationUnit":{"$ref":"20"},"destinationKey":"%vector","guid":"15052a41-53de-4406-9582-8b5ad851b52e","$type":"Unity.VisualScripting.ValueConnection"}],"$version":"A"}}'
    _objectReferences: []
